[
    {
        "id": 153,
        "title": "Portugal",
        "coords": "87,323,101,326,124,272,103,260,91,290",
        "info": {
            "pop": 10833816,
            "pop_wartime": 5980000,
            "cause_for_war": "German Blockade of English Channel and Germany's Unrestricted Submarine Warfare",
            "alliance": "Triple Entente",
            "troops_lost_to_war": 12000,
            "money_spent_on_war": "Unknown",
            "leader_at_time": "President Manuel de Arriaga (1911-1915)"
        },
        "sources": {
            "pop": "CIA The World Factbook, Portugal | https://www.cia.gov/library/publications/the-world-factbook/geos/po.html",
            "pop_wartime": "Wikipedia by the WikiMedia Foundation, Demographics of Portugal | https://en.wikipedia.org/wiki/Demographics_of_Portugal",
            "cause_for_war": "Wikipedia by the WikiMedia Foundation, Portugal during World War I | https://en.wikipedia.org/wiki/Demographics_of_Portugal",
            "alliance": "Wikipedia by the WikiMedia Foundation, Portugal during World War I | https://en.wikipedia.org/wiki/Demographics_of_Portugal",
            "troops_lost_to_war": "Wikipedia by the WikiMedia Foundation, Portugal during World War I | https://en.wikipedia.org/wiki/Portugal_during_World_War_I",
            "leader_at_time": "Wikipedia by the WikiMedia Foundation, List of State Leaders in 1914 | https://en.wikipedia.org/wiki/List_of_state_leaders_in_1914#Europe",
        }
    },
    {
        "id": 185,
        "title": "France",
        "coords": "160,192,177,208,175,254,217,273,227,260,248,267,262,258,254,226,253,186,225,161,199,180,185,174,187,188,168,180,156,183",
        "info": {
            "pop": 66836154,
            "pop_wartime": 41000000,
            "cause_for_war": "German Attack on Northeastern Industrial Sector of France and Alliance with Russia",
            "alliance": "Triple Entente",
            "troops_lost_to_war": 1300000,
            "money_spent_on_war": "Unknown",
            "leader_at_time": "President Raymond Poincaré (1913-1920)"
        },
        "sources": {
            "pop": "CIA The World Factbook, France | https://www.cia.gov/library/publications/the-world-factbook/geos/fr.html",
            "pop_wartime": "Wikipedia by the WikiMedia Foundation, Demographics of France | https://en.wikipedia.org/wiki/Demographics_of_France",
            "cause_for_war": "Wikipedia by the WikiMedia Foundation, French Army in World War I | https://en.wikipedia.org/wiki/French_Army_in_World_War_I",
            "alliance": "Wikipedia by the WikiMedia Foundation, French Army in World War I | https://en.wikipedia.org/wiki/French_Army_in_World_War_I",
            "troops_lost_to_war": "Wikipedia by the WikiMedia Foundation, French Army in World War I | https://en.wikipedia.org/wiki/French_Army_in_World_War_I",
            "leader_at_time": "Wikipedia by the WikiMedia Foundation, List of State Leaders in 1914 | https://en.wikipedia.org/wiki/List_of_state_leaders_in_1914#Europe",
        }
    },
    {
        "id": 167,
        "title": "Belgium",
        "coords": "231,156,249,163,251,180,227,164",
        "info": {
            "pop": 11409077,
            "pop_wartime": 7662000,
            "cause_for_war": "German Invasion and Attacks on Belgium",
            "alliance": "Unofficially Triple Entente. Wasn't technically a part of the Triple Entente, however they were against the Germans",
            "troops_lost_to_war": 38170,
            "money_spent_on_war": "Unknown",
            "leader_at_time": "King Albert I, King of the Belgians (1909–1934)"
        },
        "sources": {
            "pop": "CIA The World Factbook, Belgium | https://www.cia.gov/library/publications/the-world-factbook/geos/be.html",
            "pop_wartime": "Wikipedia by the WikiMedia Foundation, Demographics of Belgium | https://en.wikipedia.org/wiki/Demographics_of_Belgium",
            "cause_for_war": "Wikipedia by the WikiMedia Foundation, Belgium in World War I | https://en.wikipedia.org/wiki/Belgium_in_World_War_I",
            "alliance": "Wikipedia by the WikiMedia Foundation, Belgium in World War I  | https://en.wikipedia.org/wiki/Belgium_in_World_War_I",
            "troops_lost_to_war": "Wikipedia by the WikiMedia Foundation, World War I Casualties | https://en.wikipedia.org/wiki/World_War_I_casualties",
            "leader_at_time": "Wikipedia by the WikiMedia Foundation, List of State Leaders in 1914 | https://en.wikipedia.org/wiki/List_of_state_leaders_in_1914#Europe",
        }
    },
    {
        "id": 485,
        "title": "Spain",
        "coords": "113,240,100,246,104,259,128,271,105,322,119,342,156,338,181,317,180,307,195,290,216,278,173,256",
        "info": {
            "pop": 48563476,
            "pop_wartime": 20310000,
            "cause_for_war": null,
            "alliance": "Neutral, however the country was split between Pro-Allies and Central Powers supporters",
            "troops_lost_to_war": 0,
            "money_spent_on_war": "Unknown",
            "leader_at_time": "Alfonso XIII, King of Spain (1886–1931)"
        },
        "sources": {
            "pop": "CIA The World Factbook, Spain | https://www.cia.gov/library/publications/the-world-factbook/geos/sp.html",
            "pop_wartime": "Wikipedia by the WikiMedia Foundation, Demographics of Spain | https://en.wikipedia.org/wiki/Demographics_of_Spain",
            "cause_for_war": "Wikipedia by the WikiMedia Foundation, Spain during World War I | https://en.wikipedia.org/wiki/Spain_during_World_War_I",
            "alliance": "Wikipedia by the WikiMedia Foundation, Spain during World War I  | https://en.wikipedia.org/wiki/Spain_during_World_War_I",
            "troops_lost_to_war": "Wikipedia by the WikiMedia Foundation, World War I Casualties | https://en.wikipedia.org/wiki/World_War_I_casualties",
            "leader_at_time": "Wikipedia by the WikiMedia Foundation, List of State Leaders in 1914 | https://en.wikipedia.org/wiki/List_of_state_leaders_in_1914#Europe",
        }
    },
    {
        "id": 254,
        "title": "Russian Empire",
        "coords": "358,18,361,31,376,38,405,21,418,24,405,37,376,47,386,55,389,74,379,75,368,71,368,94,382,102,387,118,352,145,366,167,389,160,410,158,429,184,454,216,481,190,507,186,541,160,536,194,585,207,590,215,589,226,607,241,629,233,644,240,658,222,667,232,674,232,670,198,638,183,629,169,619,147,640,114,656,108,659,124,650,134,648,146,677,156,685,170,691,156,697,162,695,16",
        "info": {
            "pop": 142355415,
            "pop_wartime": 167003000,
            "cause_for_war": "Alliance with Serbia",
            "alliance": "Triple Entente",
            "troops_lost_to_war": 1700000,
            "money_spent_on_war": "Unknown",
            "leader_at_time": "Nicholas II, Emperor of Russia (1894–1917)"
        },
        "sources": {
            "pop": "CIA The World Factbook, Russia | https://www.cia.gov/library/publications/the-world-factbook/geos/rs.html",
            "pop_wartime": "Wikipedia by the WikiMedia Foundation, Demographics of the Soviet Union | https://en.wikipedia.org/wiki/Demographics_of_the_Soviet_Union#Population",
            "cause_for_war": "Wikipedia by the WikiMedia Foundation, The Eastern Front (World War 1) | https://en.wikipedia.org/wiki/https://en.wikipedia.org/wiki/Eastern_Front_(World_War_I)#Casualties",
            "alliance": "Wikipedia by the WikiMedia Foundation, The Eastern Front (World War 1)  | https://en.wikipedia.org/wiki/https://en.wikipedia.org/wiki/Eastern_Front_(World_War_I)",
            "troops_lost_to_war": "Wikipedia by the WikiMedia Foundation, World War I Casualties | https://en.wikipedia.org/wiki/World_War_I_casualties",
            "leader_at_time": "Wikipedia by the WikiMedia Foundation, List of State Leaders in 1914 | https://en.wikipedia.org/wiki/List_of_state_leaders_in_1914#Europe",
        }
    },
    {
        "id": 6957,
        "title": "Serbia",
        "coords": "378,240,377,246,381,254,386,261,391,264,394,270,400,287,414,278,411,267,413,253,406,238,391,240",
        "info": {
            "pop": 7143921,
            "pop_wartime": 2980000,
            "cause_for_war": "Austro-Hungarian Declaration of War and Invasion of Northern Serbia",
            "alliance": "Triple Entente",
            "troops_lost_to_war": 300000,
            "money_spent_on_war": "Unknown",
            "leader_at_time": "Peter I, King of Serbia (1903–1918)"
        },
        "sources": {
            "pop": "CIA The World Factbook, Serbia | https://www.cia.gov/library/publications/the-world-factbook/geos/ri.html",
            "pop_wartime": "Wikipedia by the WikiMedia Foundation, Demographics of Serbia | https://en.wikipedia.org/wiki/Demographics_of_Serbia",
            "cause_for_war": "Wikipedia by the WikiMedia Foundation, Serbian Campaign of World War I | https://en.wikipedia.org/wiki/Serbian_Campaign_of_World_War_I",
            "alliance": "Wikipedia by the WikiMedia Foundation, Serbian Campaign of World War I | https://en.wikipedia.org/wiki/Serbian_Campaign_of_World_War_I",
            "troops_lost_to_war": "Wikipedia by the WikiMedia Foundation, World War I Casualties | https://en.wikipedia.org/wiki/World_War_I_casualties",
            "leader_at_time": "Wikipedia by the WikiMedia Foundation, List of State Leaders in 1914 | https://en.wikipedia.org/wiki/List_of_state_leaders_in_1914#Europe",
        }
    },
    {
        "id": 857,
        "title": "Italy",
        "coords": "260,233,257,244,263,259,273,249,285,252,291,265,317,289,325,290,333,296,344,305,352,321,347,332,359,320,352,306,357,297,370,302,346,281,324,272,313,256,306,237,319,229,310,223,301,233,289,221,278,226",
        "info": {
            "pop": 62007540,
            "pop_wartime": 35701000,
            "cause_for_war": "London Pact (Terroritorial Neogiations with Allies)",
            "alliance": "Central Powers (1914-1915, Non-Fighting), Triple Entente (1915-1918)",
            "troops_lost_to_war": 460000,
            "money_spent_on_war": "Unknown",
            "leader_at_time": "Vittorio Emanuele III, King of Italy (1900–1946)"
        },
        "sources": {
            "pop": "CIA The World Factbook, Italy | https://www.cia.gov/library/publications/the-world-factbook/geos/it.html",
            "pop_wartime": "Wikipedia by the WikiMedia Foundation, Demographics of Italy | https://en.wikipedia.org/wiki/Demographics_of_Italy",
            "cause_for_war": "Wikipedia by the WikiMedia Foundation,  Military history of Italy during World War I | https://en.wikipedia.org/wiki/Military_history_of_Italy_during_World_War_I#From_neutrality_to_intervention",
            "alliance": "Wikipedia by the WikiMedia Foundation, Military history of Italy during World War I | https://en.wikipedia.org/wiki/Military_history_of_Italy_during_World_War_I",
            "troops_lost_to_war": "Wikipedia by the WikiMedia Foundation, World War I Casualties | https://en.wikipedia.org/wiki/World_War_I_casualties",
            "leader_at_time": "Wikipedia by the WikiMedia Foundation, List of State Leaders in 1914 | https://en.wikipedia.org/wiki/List_of_state_leaders_in_1914#Europe",
        }
    },
    {
        "id": 523,
        "title": "Ottoman Empire",
        "coords": "589,229,581,235,571,241,556,244,535,243,530,238,496,264,479,267,482,273,456,291,472,319,504,328,506,317,535,321,547,306,558,304,563,302,564,376,580,400,607,400,583,377,588,356,595,344,600,325,616,320,637,323,657,326,678,339,690,352,695,363,699,323,667,304,666,284,640,265,627,240,609,243",
        "info": {
            "pop": 14629000,
            "pop_wartime": 14629000,
            "cause_for_war": "They wanted to restore the empire to its former glory",
            "alliance": "Central Powers",
            "troops_lost_to_war": 325000,
            "money_spent_on_war": "Unknown",
            "leader_at_time": "Mehmed V, Sultan (1909–1918)"
        },
        "sources": {
            "pop": "Wikipedia by the WikiMedia Foundation, Demographics of the Ottoman Empire | https://en.wikipedia.org/wiki/Demographics_of_the_Ottoman_Empire",
            "pop_wartime": "Wikipedia by the WikiMedia Foundation, Demographics of the Ottoman Empire | https://en.wikipedia.org/wiki/Demographics_of_the_Ottoman_Empire",
            "troops_lost_to_war": "Wikipedia by the WikiMedia Foundation, World War I Casualties | https://en.wikipedia.org/wiki/World_War_I_casualties",
            "leader_at_time": "Wikipedia by the WikiMedia Foundation, List of State Leaders in 1914 | https://en.wikipedia.org/wiki/List_of_state_leaders_in_1914#Europe",
        }
    },
    {
        "id": 1383, 
        "title": "German Empire",
        "coords": "264,128,263,148,256,155,253,173,258,180,254,189,260,193,259,203,262,210,274,209,282,210,294,210,311,207,322,197,315,187,308,176,324,168,333,164,342,170,352,172,367,173,360,162,351,151,353,142,384,122,384,105,372,98,365,110,353,115,344,114,325,123,319,131,306,121,292,125,279,109,278,123,274,131",
        "info": {
            "pop": 80722792, 
            "pop_wartime": 65860000, 
            "cause_for_war": "Alliance with Austro-Hungary and sense of Nationalism against other countries", 
            "alliance": "Central Powers", 
            "troops_lost_to_war": 2037000, 
            "leader_at_time": "Wilhelm II, German Emperor (1888–1918)" 
        },
        "sources": {
            "pop": "CIA The World Factbook, Germany | https://www.cia.gov/library/publications/the-world-factbook/geos/gm.html",
            "pop_wartime": "Wikipedia by the WikiMedia Foundation, Demographics of Germany | https://en.wikipedia.org/wiki/Demographics_of_Germany",
            "cause_for_war": "Wikipedia by the WikiMedia Foundation, History of Germany during World War I | https://en.wikipedia.org/wiki/History_of_Germany_during_World_War_I",
            "troops_lost_to_war": "Wikipedia by the WikiMedia Foundation, World War I Casualties | https://en.wikipedia.org/wiki/World_War_I_casualties",
            "leader_at_time": "Wikipedia by the WikiMedia Foundation, List of State Leaders in 1914 | https://en.wikipedia.org/wiki/List_of_state_leaders_in_1914#Europe",
        }
    },
    {
        "id": 13838134, 
        "title": "Austro-Hungarian Empire",
        "coords": "298,231,292,220,282,214,313,208,323,199,311,176,335,165,366,174,379,170,389,162,417,163,426,172,428,190,423,200,435,215,407,228,401,240,382,241,375,274,350,260,331,237,323,243,323,228,312,222",
        "info": {
            "pop": 52800000, 
            "pop_wartime": 52800000, 
            "cause_for_war": "Death of Archduke Ferdinand by Serbia Terrorist Group, Black Hand", 
            "alliance": "Central Powers", 
            "troops_lost_to_war": 1200000, 
            "leader_at_time": "Franz Joseph, Emperor of Austria and King of Hungary (1848–1916)" 
        },
        "sources": {
            "pop": "Wikipedia by the WikiMedia Foundation, Austria-Hungary | https://en.wikipedia.org/wiki/Austria-Hungary#Demographics",
            "pop_wartime": "Wikipedia by the WikiMedia Foundation, Austria-Hungary | https://en.wikipedia.org/wiki/Austria-Hungary#Demographics",
            "troops_lost_to_war": "Wikipedia by the WikiMedia Foundation, World War I Casualties | https://en.wikipedia.org/wiki/World_War_I_casualties",
            "leader_at_time": "Wikipedia by the WikiMedia Foundation, List of State Leaders in 1914 | https://en.wikipedia.org/wiki/List_of_state_leaders_in_1914#Europe",
        }
    },
    {
        "id": 1343, 
        "title": "Greece",
        "coords": "429,280,401,289,402,296,398,308,406,320,413,337,424,336,425,328,430,319,435,313,413,292,424,292",
        "info": {
            "pop": 10773253,
            "pop_wartime": 53200000, 
            "cause_for_war": "Alliance with Serbia",
            "alliance": "Triple Entente", 
            "troops_lost_to_war": 5000, 
            "leader_at_time": "Constantine I, King of the Hellenes (1913–1917)" 
        },
        "sources": {
            "pop": "CIA The World Factbook, Greece | https://www.cia.gov/library/publications/the-world-factbook/geos/gr.html",
            "pop_wartime": "Populstat, Greece | http://www.populstat.info/Europe/greecec.htm",
            "cause_for_war": "Wikipedia by the WikiMedia Foundation, Greece during World War I | https://en.wikipedia.org/wiki/Greece_during_World_War_I#Participation_in_the_war",
            "troops_lost_to_war": "Wikipedia by the WikiMedia Foundation, World War I Casualties | https://en.wikipedia.org/wiki/World_War_I_casualties",
            "leader_at_time": "Wikipedia by the WikiMedia Foundation, List of State Leaders in 1914 | https://en.wikipedia.org/wiki/List_of_state_leaders_in_1914#Europe",
        }
    },
    {
        "id": 2342342, 
        "title": "Mainland United Kingdom",
        "coords": "210,155,157,162,167,150,182,146,163,140,175,123,187,116,183,101,172,101,178,93,167,86,177,78,169,66,182,55,194,57,186,66,199,70,188,86,197,93,205,118,218,141",
        "info": {
            "pop": 64430428, 
            "pop_wartime": 42082000, 
            "cause_for_war": "Unrestricted German Submarine Warfare and Blockade of Neutral Seas", 
            "alliance": "Triple Entente", 
            "troops_lost_to_war": 744000, 
            "leader_at_time": "George V (1910–1936)" 
        },
        "sources": {
            "pop": "CIA The World Factbook, United Kingdom | https://www.cia.gov/library/publications/the-world-factbook/geos/uk.html",
            "pop_wartime": "Wikipedia by the WikiMedia Foundation, Demography of the United Kingdom | https://en.wikipedia.org/wiki/Demography_of_the_United_Kingdom#Population",
            "troops_lost_to_war": "Wikipedia by the WikiMedia Foundation, World War I Casualties | https://en.wikipedia.org/wiki/World_War_I_casualties",
            "leader_at_time": "Wikipedia by the WikiMedia Foundation, List of State Leaders in 1914 | https://en.wikipedia.org/wiki/List_of_state_leaders_in_1914#Europe",
        }
    },
    {
        "id": 8234, 
        "title": "Ireland (UK)",
        "coords": "137,100,147,103,150,92,163,95,160,110,154,127,129,135,127,123,136,114,131,110",
        "info": {
            "pop": 64430428,
            "pop_wartime": 42082000,
            "cause_for_war": "Unrestricted German Submarine Warfare and Blockade of Neutral Seas", 
            "alliance": "Triple Entente", 
            "troops_lost_to_war": 744000, 
            "leader_at_time": "George V (1910–1936)" 
        },
        "sources": {
            "pop": "CIA The World Factbook, United Kingdom | https://www.cia.gov/library/publications/the-world-factbook/geos/uk.html",
            "pop_wartime": "Wikipedia by the WikiMedia Foundation, Demography of the United Kingdom | https://en.wikipedia.org/wiki/Demography_of_the_United_Kingdom#Population",
            "troops_lost_to_war": "Wikipedia by the WikiMedia Foundation, World War I Casualties | https://en.wikipedia.org/wiki/World_War_I_casualties",
            "leader_at_time": "Wikipedia by the WikiMedia Foundation, List of State Leaders in 1914 | https://en.wikipedia.org/wiki/List_of_state_leaders_in_1914#Europe",
        }
    },
    {
        "id": 814, 
        "title": "Netherlands",
        "coords": "256,131,246,136,247,145,238,145,237,154,253,161,262,148,263,132",
        "info": {
            "pop": 17016967,
            "pop_wartime": 6251000,
            "cause_for_war": "",
            "alliance": "Neutral", 
            "troops_lost_to_war": 0, 
            "leader_at_time": "Wilhelmina, Queen of the Netherlands (1890–1948)" 
        },
        "sources": {
            "pop": "CIA The World Factbook, Netherlands | https://www.cia.gov/library/publications/the-world-factbook/geos/nl.html",
            "pop_wartime": "Wikipedia by the WikiMedia Foundation, Demographics of the Netherlands | https://en.wikipedia.org/wiki/Demographics_of_the_Netherlands",
            "troops_lost_to_war": "Wikipedia by the WikiMedia Foundation, World War I Casualties | https://en.wikipedia.org/wiki/World_War_I_casualties",
            "leader_at_time": "Wikipedia by the WikiMedia Foundation, List of State Leaders in 1914 | https://en.wikipedia.org/wiki/List_of_state_leaders_in_1914#Europe",
        }
    },
    {
        "id": 242, 
        "title": "Romania",
        "coords": "434,188,448,200,451,216,463,224,461,239,443,242,415,249,406,233,414,227,438,217,426,200",
        "info": {
            "pop": 21599736, 
            "pop_wartime": 7770000, 
            "cause_for_war": "Attempted to Seize Transylvania and Alliance with Russia",
            "alliance": "Triple Entente", 
            "troops_lost_to_war": 250000, 
            "leader_at_time": "Ferdinand I, King of Romania (1914–1927)" 
        },
        "sources": {
            "pop": "CIA The World Factbook, Romania | https://www.cia.gov/library/publications/the-world-factbook/geos/ro.html",
            "pop_wartime": "Wikipedia by the WikiMedia Foundation, Demographics of Romania | https://en.wikipedia.org/wiki/Demographics_of_Romania",
            "cause_for_war": "Wikipedia by the WikiMedia Foundation, Romania during World War I | https://en.wikipedia.org/wiki/Romania_during_World_War_I",
            "troops_lost_to_war": "Wikipedia by the WikiMedia Foundation, World War I Casualties | https://en.wikipedia.org/wiki/World_War_I_casualties",
            "leader_at_time": "Wikipedia by the WikiMedia Foundation, List of State Leaders in 1914 | https://en.wikipedia.org/wiki/List_of_state_leaders_in_1914#Europe",
        }
    },
    {
        "id": 91442, 
        "title": "Switerland",
        "coords": "259,213,254,223,262,228,273,225,278,229,280,223,289,228,288,219,280,213,272,212",
        "info": {
            "pop": 8179294, 
            "pop_wartime": 3897000,
            "cause_for_war": "", 
            "alliance": "Neutral", 
            "troops_lost_to_war": 0, 
            "leader_at_time": "President, Arthur Hoffmann (1914)" 
        },
        "sources": {
            "pop": "CIA The World Factbook, Switerland | https://www.cia.gov/library/publications/the-world-factbook/geos/sz.html",
            "pop_wartime": "Wikipedia by the WikiMedia Foundation, Demographics of Switzerland | https://en.wikipedia.org/wiki/Demographics_of_Switzerland",
            "leader_at_time": "Wikipedia by the WikiMedia Foundation, List of State Leaders in 1914 | https://en.wikipedia.org/wiki/List_of_state_leaders_in_1914#Europe",
        }
    },
    {
        "id": 2112, 
        "title": "Bulgaria",
        "coords": "445,277,433,276,419,277,419,269,411,268,413,255,408,250,422,250,432,248,446,245,457,244,457,253,464,262,451,263,446,270",
        "info": {
            "pop": 7144653, 
            "pop_wartime": 4240000, 
            "cause_for_war": "Persuadion by the Central Powers to join their Alliance and hatred against Serbia",
            "alliance": "Central Powers", 
            "troops_lost_to_war": 87500, 
            "leader_at_time": "Ferdinand I, Tsar of Bulgaria (1908–1918)" 
        },
        "sources": {
            "pop": "CIA The World Factbook, Bulgaria | https://www.cia.gov/library/publications/the-world-factbook/geos/bu.html",
            "pop_wartime": "Wikipedia by the WikiMedia Foundation, Demographics of Bulgaria | https://en.wikipedia.org/wiki/Demographics_of_Bulgaria",
            "cause_for_war": "Wikipedia by the WikiMedia Foundation, Bulgaria during World War I | https://en.wikipedia.org/wiki/Bulgaria_during_World_War_I",
            "troops_lost_to_war": "Wikipedia by the WikiMedia Foundation, World War I Casualties | https://en.wikipedia.org/wiki/World_War_I_casualties",
            "leader_at_time": "Wikipedia by the WikiMedia Foundation, List of State Leaders in 1914 | https://en.wikipedia.org/wiki/List_of_state_leaders_in_1914#Europe",
        }
    },
    {
        "id": 4646, 
        "title": "Albania",
        "coords": "394,277,395,286,400,296,396,309,385,299,382,291,382,279,385,269",
        "info": {
            "pop": 3038594, 
            "pop_wartime": "Less than 800000 people", 
            "cause_for_war": "Neutral", 
            "alliance": "Neutral", 
            "troops_lost_to_war": 0, 
            "leader_at_time": "Wilhelm zu Wied, Sovereign Prince of Albania (1914)" 
        },
        "sources": {
            "pop": "CIA The World Factbook, Albania | https://www.cia.gov/library/publications/the-world-factbook/geos/al.html",
            "pop_wartime": "Wikipedia by the WikiMedia Foundation, Demographics of Albania | https://en.wikipedia.org/wiki/Demographics_of_Albania",
            "leader_at_time": "Wikipedia by the WikiMedia Foundation, List of State Leaders in 1914 | https://en.wikipedia.org/wiki/List_of_state_leaders_in_1914#Europe",
        }
    },
    {
        "id": 6464, 
        "title": "Denmark",
        "coords": "288,76,285,90,292,94,303,99,299,114,288,109,278,102,270,96,273,82",
        "info": {
            "pop": 5593785, 
            "pop_wartime": 2866000, 
            "cause_for_war": "Neutral", 
            "alliance": "Neutral", 
            "troops_lost_to_war": 0, 
            "leader_at_time": "Christian X, King of Denmark (1912–1947)" 
        },
        "sources": {
            "pop": "CIA The World Factbook, Denmark | https://www.cia.gov/library/publications/the-world-factbook/geos/da.html",
            "pop_wartime": "Wikipedia by the WikiMedia Foundation, Demographics of Denmark | https://en.wikipedia.org/wiki/Demographics_of_Denmark",
            "leader_at_time": "Wikipedia by the WikiMedia Foundation, List of State Leaders in 1914 | https://en.wikipedia.org/wiki/List_of_state_leaders_in_1914#Europe",
        }
    },
    {
        "id": 2838, 
        "title": "Norway",
        "coords": "258,15,255,26,268,30,257,32,257,42,266,40,255,53,262,51,256,62,265,67,279,65,287,61,289,47,294,54,300,41,299,16",
        "info": {
            "pop": 5265158, 
            "pop_wartime": 2472000, 
            "cause_for_war": "Neutral", 
            "alliance": "Neutral", 
            "troops_lost_to_war": 0, 
            "leader_at_time": "Haakon VII, King of Norway (1905–1957)" 
        },
        "sources": {
            "pop": "CIA The World Factbook, Norway | https://www.cia.gov/library/publications/the-world-factbook/geos/no.html",
            "pop_wartime": "Wikipedia by the WikiMedia Foundation, Demographics of Norway | https://en.wikipedia.org/wiki/Demographics_of_Norway",
            "leader_at_time": "Wikipedia by the WikiMedia Foundation, List of State Leaders in 1914 | https://en.wikipedia.org/wiki/List_of_state_leaders_in_1914#Europe",
        }
    },
    {
        "id": 2852, 
        "title": "Sweden",
        "coords": "301,17,303,30,293,61,300,71,306,88,310,103,317,103,318,97,328,93,333,62,345,44,333,34,332,16",
        "info": {
            "pop": 9880604, 
            "pop_wartime": 5659000, 
            "cause_for_war": "Neutral", 
            "alliance": "Neutral", 
            "troops_lost_to_war": 0, 
            "leader_at_time": "Gustaf V (1907–1950)" 
        },
        "sources": {
            "pop": "CIA The World Factbook, Sweden | https://www.cia.gov/library/publications/the-world-factbook/geos/sw.html",
            "pop_wartime": "Wikipedia by the WikiMedia Foundation, Demographics of Sweden | https://en.wikipedia.org/wiki/Demographics_of_Sweden",
            "troops_lost_to_war": "Wikipedia by the WikiMedia Foundation, World War I Casualties | https://en.wikipedia.org/wiki/World_War_I_casualties",
            "leader_at_time": "Wikipedia by the WikiMedia Foundation, List of State Leaders in 1914 | https://en.wikipedia.org/wiki/List_of_state_leaders_in_1914#Europe",
        },
    },
    {
        "id": 1633, 
        "title": "Montenegro",
        "coords": "380,258,374,264,377,271,382,278,384,270,394,272,391,264",
        "info": {
            "pop": 644578, 
            "pop_wartime": 500000, 
            "cause_for_war": "Reaction to Austria-Hungary declaration of war on Serbia",
            "alliance": "Triple Entente", 
            "troops_lost_to_war": 3000, 
            "leader_at_time": "Nikola I, King of Montenegro (1910–1918)" 
        },
        "sources": {
            "pop": "CIA The World Factbook, Montenegro | https://www.cia.gov/library/publications/the-world-factbook/geos/mj.html",
            "pop_wartime": "Wikipedia by the WikiMedia Foundation, Demographics History of Montenegro | https://en.wikipedia.org/wiki/Demographic_history_of_Montenegro#1914",
            "cause_for_war": "Wikipedia by the WikiMedia Foundation, History of Montenegro | https://en.wikipedia.org/wiki/History_of_Montenegro#Modern_history",
            "troops_lost_to_war": "Wikipedia by the WikiMedia Foundation, World War I Casualties | https://en.wikipedia.org/wiki/World_War_I_casualties",
            "leader_at_time": "Wikipedia by the WikiMedia Foundation, List of State Leaders in 1914 | https://en.wikipedia.org/wiki/List_of_state_leaders_in_1914#Europe",
        },
    },
    {
        "id": 255345, 
        "title": "Luxembourg",
        "coords": "252,175,253,182,258,178",
        "info": {
            "pop": 582291,
            "pop_wartime": 266000,
            "cause_for_war": "Neutral",
            "alliance": "Neutral (Although occupied by German Forces)",
            "troops_lost_to_war": 0,
            "money_spent_on_war": "Unknown",
            "leader_at_time": "Marie Adélaïde, Grand Duchess of Luxembourg (1912–1919)"
        },
        "sources": {
            "pop": "CIA The World Factbook, Luxembourg | https://www.cia.gov/library/publications/the-world-factbook/geos/lu.html",
            "pop_wartime": "Wikipedia by the WikiMedia Foundation, Demographics of Luxembourg | https://en.wikipedia.org/wiki/Demographics_of_Luxembourg",
            "cause_for_war": "Wikipedia by the WikiMedia Foundation, World War I Casualties | https://en.wikipedia.org/wiki/World_War_I_casualties#endnote_Lux",
            "alliance": "Wikipedia by the WikiMedia Foundation, World War I Casualties | https://en.wikipedia.org/wiki/World_War_I_casualties#endnote_Lux",
            "troops_lost_to_war": "Wikipedia by the WikiMedia Foundation, World War I Casualties | https://en.wikipedia.org/wiki/World_War_I_casualties",
            "leader_at_time": "Wikipedia by the WikiMedia Foundation, List of State Leaders in 1914 | https://en.wikipedia.org/wiki/List_of_state_leaders_in_1914#Europe",
        }
    },
]
